TopCache_tb.vcd
$date
	Fri Jan 26 14:46:36 2024
$end

$version
	Synopsys VCS version S-2021.09
$end

$timescale
	1ps
$end

$comment Csum: 1 e3bc36a1d194a8fd $end


$scope module TopCache_tb $end
$var reg 1 ! clk $end
$var reg 1 " reset $end
$var reg 1 # rd_wr $end
$var reg 32 $ address [31:0] $end
$var reg 32 % write_data [31:0] $end
$var reg 32 & read_data [31:0] $end
$var reg 1 ' hit_miss $end

$scope begin unnamed$$_vcs_0 $end
$upscope $end


$scope module uut $end
$var reg 1 ! clk $end
$var reg 1 " reset $end
$var reg 1 # rd_wr $end
$var reg 32 $ address [31:0] $end
$var reg 32 % write_data [31:0] $end
$var reg 32 & read_data [31:0] $end
$var reg 1 ' hit_miss $end

$scope begin unnamed$$_vcs_0 $end
$upscope $end


$scope module L1_cache $end
$var reg 1 ! clk $end
$var reg 1 ( fill_cache $end
$var reg 1 " reset $end
$var reg 1 # rd_wr $end
$var reg 32 $ address [31:0] $end
$var reg 32 % write_data [31:0] $end
$var reg 32 & read_data [31:0] $end
$var reg 1 ' hit_miss $end
$var reg 32 ) l2_read_data [31:0] $end
$var reg 1 * l2_hit_miss $end
$var reg 1 + enable_l2 $end
$var reg 1 , isFull $end
$var reg 32 - lru_value [31:0] $end
$var reg 6 . index [5:0] $end
$var reg 22 / tag [21:0] $end
$var reg 4 0 block_offset [3:0] $end
$var reg 28 1 tag_full [27:0] $end
$var reg 6 2 set [5:0] $end
$var reg 32 3 total_accesses [31:0] $end
$var reg 32 4 total_hits [31:0] $end
$var reg 32 5 total_misses [31:0] $end
$var reg 32 6 total_writes [31:0] $end
$var reg 32 7 total_reads [31:0] $end
$var reg 32 8 hit_read [31:0] $end
$var reg 32 9 miss_read [31:0] $end
$var reg 32 : hit_write [31:0] $end
$var reg 32 ; miss_write [31:0] $end
$var reg 32 < placement_type [31:0] $end

$scope function write $end
$var reg 32 = addr [31:0] $end
$var reg 32 > data_in [31:0] $end
$upscope $end


$scope function read $end
$var reg 32 ? read [31:0] $end
$var reg 32 @ addr [31:0] $end
$upscope $end


$scope function write_set $end
$var reg 6 A set [5:0] $end
$var reg 32 B data_in [31:0] $end
$var reg 32 C i [31:0] $end
$upscope $end


$scope function read_set $end
$var reg 32 D read_set [31:0] $end
$var reg 6 E set [5:0] $end
$var reg 32 F i [31:0] $end
$upscope $end


$scope function handle_direct_map $end
$upscope $end


$scope function Performance $end
$var real 64 G miss_rate $end
$var real 64 H hit_rate $end
$var real 64 I write_hit_ratio $end
$var real 64 J write_miss_ratio $end
$var real 64 K read_hit_ratio $end
$var real 64 L read_miss_ratio $end
$upscope $end


$scope function handle_set_associative $end
$var reg 1 M found $end
$var reg 32 N cache_line_index [31:0] $end

$scope begin unnamed$$_0 $end
$upscope $end

$upscope $end


$scope function handle_fully_associative $end
$var reg 1 O found $end
$var reg 1 P do_replace $end
$var reg 32 Q empty_index [31:0] $end

$scope begin unnamed$$_0 $end
$upscope $end

$upscope $end


$scope function lru $end
$var reg 32 R lru_value [31:0] $end
$upscope $end


$scope function fill_cache_block $end
$var reg 32 S index [31:0] $end
$upscope $end


$scope function fill_cache_with_random_number $end
$var reg 32 T j [31:0] $end
$var reg 32 U i [31:0] $end
$upscope $end


$scope function Set_fill_cache_with_random_number $end
$var reg 32 V mem_address [31:0] $end

$scope begin unnamed$$_0 $end

$scope begin unnamed$$_1 $end
$upscope $end

$upscope $end


$scope begin unnamed$$_2 $end

$scope begin unnamed$$_3 $end
$upscope $end

$upscope $end

$upscope $end


$scope function set_is_cache_full $end
$var reg 1 W set_is_cache_full $end

$scope begin unnamed$$_0 $end
$upscope $end

$upscope $end


$scope function is_cache_full $end
$var reg 1 X is_cache_full $end

$scope begin unnamed$$_0 $end
$upscope $end

$upscope $end


$scope function print_cache $end

$scope begin unnamed$$_0 $end
$upscope $end

$upscope $end


$scope function print_set_cache $end
$var reg 32 Y i [31:0] $end

$scope begin unnamed$$_0 $end

$scope begin unnamed$$_1 $end
$upscope $end

$upscope $end

$upscope $end


$scope begin unnamed$$_vcs_0 $end

$scope begin unnamed$$_0 $end
$upscope $end


$scope begin unnamed$$_1 $end

$scope begin unnamed$$_2 $end
$upscope $end

$upscope $end


$scope begin unnamed$$_3 $end
$upscope $end

$upscope $end


$scope module L2_cache $end
$var reg 1 ! clk $end
$var reg 1 Z fill_cache $end
$var reg 1 " reset $end
$var reg 1 + enable_l2 $end
$var reg 1 # rd_wr $end
$var reg 32 $ address [31:0] $end
$var reg 32 % write_data [31:0] $end
$var reg 32 ) read_data [31:0] $end
$var reg 1 * hit_miss $end
$var reg 1 [ isFull $end
$var reg 32 \ lru_value [31:0] $end
$var reg 7 ] index [6:0] $end
$var reg 21 ^ tag [20:0] $end
$var reg 4 _ block_offset [3:0] $end
$var reg 28 ` tag_full [27:0] $end
$var reg 7 a set [6:0] $end
$var reg 32 b total_accesses [31:0] $end
$var reg 32 c total_hits [31:0] $end
$var reg 32 d total_misses [31:0] $end
$var reg 32 e total_writes [31:0] $end
$var reg 32 f total_reads [31:0] $end
$var reg 32 g hit_read [31:0] $end
$var reg 32 h miss_read [31:0] $end
$var reg 32 i hit_write [31:0] $end
$var reg 32 j miss_write [31:0] $end
$var reg 32 k placement_type [31:0] $end

$scope begin unnamed$$_vcs_0 $end
$upscope $end


$scope begin unnamed$$_vcs_1 $end
$upscope $end


$scope begin unnamed$$_vcs_2 $end

$scope begin unnamed$$_0 $end
$upscope $end


$scope begin unnamed$$_1 $end

$scope begin unnamed$$_2 $end
$upscope $end

$upscope $end


$scope begin unnamed$$_3 $end
$upscope $end

$upscope $end

$upscope $end

$upscope $end

$upscope $end

$upscope $end

$enddefinitions $end

#0
$dumpvars
0!
0#
0"
0[
0+
0P
0O
0M
0'
0,
0X
0*
0W
bxxxxxxx a
bxxxxxxxxxxxxxxxxxxxxxxxxxxxx `
b00000000000000000000000000000000 $
bxxxxxxxxxxxxxxxxxxxxxxxxxxxxxxxx )
bxxxxxxxxxxxxxxxxxxxxxxxxxxxxxxxx &
bxxxxxx 2
bxxxxxxxxxxxxxxxxxxxxxxxxxxxx 1
bxxxxxx .
bxxxxxxxxxxxxxxxxxxxxxx /
bxxxx 0
bxxxxxxx ]
bxxxxxxxxxxxxxxxxxxxxx ^
bxxxx _
b00000000000000000000000000000000 %
b00000000000000000000000000000000 g
b00000000000000000000000000000000 i
b00000000000000000000000000000000 \
b00000000000000000000000000000000 h
b00000000000000000000000000000000 j
b00000000000000000000000000000000 k
b00000000000000000000000000000000 b
b00000000000000000000000000000000 c
b00000000000000000000000000000000 d
b00000000000000000000000000000000 f
b00000000000000000000000000000000 e
b00000000000000000000000000000000 V
b00000000000000000000000000000000 U
b00000000000000000000000000000000 T
b00000000000000000000000000000000 Q
b00000000000000000000000000000000 N
b00000000000000000000000000000000 8
b00000000000000000000000000000000 :
b00000000000000000000000000000000 -
b00000000000000000000000000000000 9
b00000000000000000000000000000000 ;
b00000000000000000000000000000000 <
b00000000000000000000000000000000 Y
b00000000000000000000000000000000 3
b00000000000000000000000000000000 4
b00000000000000000000000000000000 5
b00000000000000000000000000000000 7
b00000000000000000000000000000000 6
r-nan  H
r-nan  G
r-nan  K
r-nan  L
r-nan  I
r-nan  J
1Z
b00000000000000000000000000000000 S
b00000000000000000000000000000000 R
b00000000000000000000000000000000 F
bxxxxxx E
bxxxxxxxxxxxxxxxxxxxxxxxxxxxxxxxx D
b00000000000000000000000000000000 C
bxxxxxxxxxxxxxxxxxxxxxxxxxxxxxxxx B
bxxxxxx A
bxxxxxxxxxxxxxxxxxxxxxxxxxxxxxxxx @
bxxxxxxxxxxxxxxxxxxxxxxxxxxxxxxxx ?
bxxxxxxxxxxxxxxxxxxxxxxxxxxxxxxxx >
bxxxxxxxxxxxxxxxxxxxxxxxxxxxxxxxx =
0(
$end
#5000
1!
b00000000000001000000100011100011 T
b00000000000000000000000001000000 U
#10000
0!
#15000
1!
b00000000000000000000000000000000 U
b00000000000001010101101110000000 T
b00000000000000000000000001000000 U
#20000
0!
#25000
1!
b00000000000000000000000000000000 U
b00000000000001100000000010011101 T
b00000000000000000000000001000000 U
#30000
0!
#35000
1!
b00000000000000000000000000000000 U
b00000000000001100100111100010010 T
b00000000000000000000000001000000 U
#40000
1"
0!
#45000
1!
r0.000000000000000  H
r0.000000000000000  G
r-nan  H
r-nan  G
b000000 .
b0000000000000000000000 /
b0000 0
b00000000000000000000000000000001 3
b00000000000000000000000000000001 7
1+
b00000000000000000000000000000001 5
b00000000000000000000000000000001 9
b0000000 ]
b000000000000000000000 ^
b0000 _
b00000000000000000000000000000001 b
b00000000000000000000000000000001 f
b00000000000000000000000000000001 d
b00000000000000000000000000000001 h
b00010010000101010011010100100100 )
1#
b00000000000000000000001011001101 $
b11101010111011110110011011010101 %
#50000
0!
#55000
1!
r0.000000000000000  H
r1.000000000000000  G
r0.000000000000000  K
r1.000000000000000  L
b101100 .
b1101 0
b00000000000000000000000000000010 3
b00000000000000000000000000000001 6
b00000000000000000000000000000010 5
b00000000000000000000000000000001 ;
b0101100 ]
b1101 _
b00000000000000000000000000000010 b
b00000000000000000000000000000001 e
b00000000000000000000000000000010 d
b00000000000000000000000000000001 j
0#
b00000000000000000000001111011011 $
b10100011110010001110000001000111 %
#60000
0!
#65000
1!
r0.000000000000000  I
r1.000000000000000  J
b111101 .
b1011 0
b00000000000000000000000000000011 3
b00000000000000000000000000000010 7
b00000000000000000000000000000011 5
b00000000000000000000000000000010 9
b00010010000101010011010100100100 &
b0111101 ]
b1011 _
b00000000000000000000000000000011 b
b00000000000000000000000000000010 f
b00000000000000000000000000000011 d
b00000000000000000000000000000010 h
b01011010001101110110000110110100 )
1#
b00000000000000000000001101100011 $
b11101100100100111010110011011001 %
#70000
0!
#75000
1!
b110110 .
b0011 0
b00000000000000000000000000000100 3
b00000000000000000000000000000010 6
b00000000000000000000000000000100 5
b00000000000000000000000000000010 ;
b0110110 ]
b0011 _
b00000000000000000000000000000100 b
b00000000000000000000000000000010 e
b00000000000000000000000000000100 d
b00000000000000000000000000000010 j
b00000000000000000000001010011000 $
b00000110011010110010110100001100 %
#80000
0!
#85000
1!
b101001 .
b1000 0
b00000000000000000000000000000101 3
b00000000000000000000000000000011 6
b00000000000000000000000000000101 5
b00000000000000000000000000000011 ;
b0101001 ]
b1000 _
b00000000000000000000000000000101 b
b00000000000000000000000000000011 e
b00000000000000000000000000000101 d
b00000000000000000000000000000011 j
b00000000000000000000000010100100 $
b10111101011000010010010001111010 %
#90000
0!
#95000
1!
b001010 .
b0100 0
b00000000000000000000000000000110 3
b00000000000000000000000000000100 6
b00000000000000000000000000000110 5
b00000000000000000000000000000100 ;
b0001010 ]
b0100 _
b00000000000000000000000000000110 b
b00000000000000000000000000000100 e
b00000000000000000000000000000110 d
b00000000000000000000000000000100 j
b00000000000000000000000101000101 $
b00100111001000000001000101001110 %
#100000
0!
#105000
1!
b010100 .
b0101 0
b00000000000000000000000000000111 3
b00000000000000000000000000000101 6
b00000000000000000000000000000111 5
b00000000000000000000000000000101 ;
b0010100 ]
b0101 _
b00000000000000000000000000000111 b
b00000000000000000000000000000101 e
b00000000000000000000000000000111 d
b00000000000000000000000000000101 j
0#
b00000000000000000000001001001111 $
b11010101001110110111000010101010 %
#110000
0!
#115000
1!
b100100 .
b1111 0
b00000000000000000000000000001000 3
b00000000000000000000000000000011 7
b00000000000000000000000000001000 5
b00000000000000000000000000000011 9
b01011010001101110110000110110100 &
b0100100 ]
b1111 _
b00000000000000000000000000001000 b
b00000000000000000000000000000011 f
b00000000000000000000000000001000 d
b00000000000000000000000000000011 h
b11001010010010000001001010010100 )
b00000000000000000000000111100111 $
b00101001101110011111111101010011 %
#120000
0!
#125000
1!
b011110 .
b0111 0
b00000000000000000000000000001001 3
b00000000000000000000000000000100 7
b00000000000000000000000000001001 5
b00000000000000000000000000000100 9
b11001010010010000001001010010100 &
b0011110 ]
b0111 _
b00000000000000000000000000001001 b
b00000000000000000000000000000100 f
b00000000000000000000000000001001 d
b00000000000000000000000000000100 h
b11001010101101000111110010010101 )
b00000000000000000000001000110001 $
b10110110011100101100001001101100 %
#130000
0!
#135000
1!
b100011 .
b0001 0
b00000000000000000000000000001010 3
b00000000000000000000000000000101 7
b00000000000000000000000000001010 5
b00000000000000000000000000000101 9
b11001010101101000111110010010101 &
b0100011 ]
b0001 _
b00000000000000000000000000001010 b
b00000000000000000000000000000101 f
b00000000000000000000000000001010 d
b00000000000000000000000000000101 h
b10011100111111000111101000111001 )
1#
b00000000000000000000001100000111 $
b10001101010010110111101000011010 %
#140000
0!
#145000
1!
b110000 .
b0111 0
b00000000000000000000000000001011 3
b00000000000000000000000000000110 6
b00000000000000000000000000001011 5
b00000000000000000000000000000110 ;
b0110000 ]
b0111 _
b00000000000000000000000000001011 b
b00000000000000000000000000000110 e
b00000000000000000000000000001011 d
b00000000000000000000000000000110 j
b00000000000000000000001100010101 $
b10011110111100011011001000111101 %
#150000
0!
#155000
1!
b110001 .
b0101 0
b00000000000000000000000000001100 3
b00000000000000000000000000000111 6
b00000000000000000000000000001100 5
b00000000000000000000000000000111 ;
b0110001 ]
b0101 _
b00000000000000000000000000001100 b
b00000000000000000000000000000111 e
b00000000000000000000000000001100 d
b00000000000000000000000000000111 j
0#
b00000000000000000000000010000000 $
b11110011000000111000111011100110 %
#160000
0!
#165000
1!
b001000 .
b0000 0
b00000000000000000000000000001101 3
b00000000000000000000000000000110 7
b00000000000000000000000000001101 5
b00000000000000000000000000000110 9
b10011100111111000111101000111001 &
b0001000 ]
b0000 _
b00000000000000000000000000001101 b
b00000000000000000000000000000110 f
b00000000000000000000000000001101 d
b00000000000000000000000000000110 h
b11101000011101000000110011010000 )
1#
b00000000000000000000001001110010 $
b00100001010101100010110101000010 %
#170000
0!
#175000
1!
b100111 .
b0010 0
b00000000000000000000000000001110 3
b00000000000000000000000000001000 6
b00000000000000000000000000001110 5
b00000000000000000000000000001000 ;
b0100111 ]
b0010 _
b00000000000000000000000000001110 b
b00000000000000000000000000001000 e
b00000000000000000000000000001110 d
b00000000000000000000000000001000 j
0#
b00000000000000000000001111011100 $
b10101001001110010001101001010010 %
#180000
0!
#185000
1!
b111101 .
b1100 0
1'
b00000000000000000000000000001111 3
b00000000000000000000000000000111 7
b00000000000000000000000000000001 4
b00000000000000000000000000000001 8
0+
b00010010000101010011010100100100 &
1#
b00000000000000000000001110101001 $
b01000000101011010100000110000001 %
#190000
0!
#195000
1!
r0.000000000000000  G
r0.06666666666666667  H
r0.9333333333333333  G
r0.1428571428571428  K
r0.8571428571428571  L
b111010 .
b1001 0
0'
b00000000000000000000000000010000 3
b00000000000000000000000000001001 6
b00000000000000000000000000001111 5
b00000000000000000000000000001001 ;
1+
b0111010 ]
b1001 _
b00000000000000000000000000001111 b
b00000000000000000000000000001001 e
b00000000000000000000000000001111 d
b00000000000000000000000000001001 j
0#
b00000000000000000000001101111100 $
b11010110000110001001110010101100 %
#200000
0!
#205000
1!
r0.000000000000000  H
r0.000000000000000  G
r0.06250000000000000  H
r0.9375000000000000  G
b110111 .
b1100 0
b00000000000000000000000000010001 3
b00000000000000000000000000001000 7
b00000000000000000000000000010000 5
b00000000000000000000000000000111 9
b11101000011101000000110011010000 &
b0110111 ]
b1100 _
b00000000000000000000000000010000 b
b00000000000000000000000000000111 f
b00000000000000000000000000010000 d
b00000000000000000000000000000111 h
b01001111110110111110110110011111 )
b00000000000000000000000101100111 $
b11011100010010011101011010111000 %
#210000
0!
#215000
1!
r0.000000000000000  H
r0.000000000000000  G
r0.05882352941176471  H
r0.9411764705882353  G
r0.1250000000000000  K
r0.8750000000000000  L
b010110 .
b0111 0
b00000000000000000000000000010010 3
b00000000000000000000000000001001 7
b00000000000000000000000000010001 5
b00000000000000000000000000001000 9
b01001111110110111110110110011111 &
b0010110 ]
b0111 _
b00000000000000000000000000010001 b
b00000000000000000000000000001000 f
b00000000000000000000000000010001 d
b00000000000000000000000000001000 h
b11011010001111011000110010110100 )
1#
b00000000000000000000001011011111 $
b01011010001111000010000110110100 %
#220000
0!
#225000
1!
r0.000000000000000  H
r0.000000000000000  G
r0.05555555555555555  H
r0.9444444444444444  G
r0.1111111111111111  K
r0.8888888888888888  L
b101101 .
b1111 0
b00000000000000000000000000010011 3
b00000000000000000000000000001010 6
b00000000000000000000000000010010 5
b00000000000000000000000000001010 ;
b0101101 ]
b1111 _
b00000000000000000000000000010010 b
b00000000000000000000000000001010 e
b00000000000000000000000000010010 d
b00000000000000000000000000001010 j
b00000000000000000000001111010010 $
b01010110110011110110111110101101 %
#230000
0!
#235000
1!
r0.000000000000000  H
r0.000000000000000  G
r0.05263157894736842  H
r0.9473684210526315  G
b111101 .
b0010 0
1'
b00000000000000000000000000010100 3
b00000000000000000000000000001011 6
b00000000000000000000000000000010 4
b00000000000000000000000000000001 :
0+
b00000000000000000000001001000001 $
b11010101101001101100100010101011 %
#240000
0!
#245000
1!
r0.000000000000000  H
r0.000000000000000  G
r0.1000000000000000  H
r0.9000000000000000  G
r0.09090909090909091  I
r0.9090909090909091  J
b100100 .
b0001 0
b00000000000000000000000000010101 3
b00000000000000000000000000001100 6
b00000000000000000000000000000011 4
b00000000000000000000000000000010 :
b00000000000000000000001110111000 $
b01010110100110011011010110101101 %
#250000
0!
#255000
1!
r0.000000000000000  H
r0.000000000000000  G
r0.1428571428571428  H
r0.8571428571428571  G
r0.1666666666666667  I
r0.8333333333333334  J
b111011 .
b1000 0
0'
b00000000000000000000000000010110 3
b00000000000000000000000000001101 6
b00000000000000000000000000010011 5
b00000000000000000000000000001011 ;
1+
b0111011 ]
b1000 _
b00000000000000000000000000010011 b
b00000000000000000000000000001011 e
b00000000000000000000000000010011 d
b00000000000000000000000000001011 j
b00000000000000000000001100100001 $
b11011010100100101010000010110101 %
#260000
0!
#265000
1!
r0.000000000000000  H
r0.000000000000000  G
r0.1363636363636364  H
r0.8636363636363636  G
r0.1538461538461539  I
r0.8461538461538461  J
b110010 .
b0001 0
b00000000000000000000000000010111 3
b00000000000000000000000000001110 6
b00000000000000000000000000010100 5
b00000000000000000000000000001100 ;
b0110010 ]
b0001 _
b00000000000000000000000000010100 b
b00000000000000000000000000001100 e
b00000000000000000000000000010100 d
b00000000000000000000000000001100 j
0#
b00000000000000000000001101100111 $
b11111001000110100100010011110010 %
#270000
0!
#275000
1!
r0.000000000000000  H
r0.000000000000000  G
r0.1304347826086956  H
r0.8695652173913043  G
r0.1428571428571428  I
r0.8571428571428571  J
b110110 .
b0111 0
1'
b00000000000000000000000000011000 3
b00000000000000000000000000001010 7
b00000000000000000000000000000100 4
b00000000000000000000000000000010 8
0+
b11101100100100111010110011011001 &
b00000000000000000000001001001001 $
b10000011111110010110101000000111 %
#280000
0!
#285000
1!
r0.000000000000000  H
r0.000000000000000  G
r0.1666666666666667  H
r0.8333333333333334  G
r0.2000000000000000  K
r0.8000000000000000  L
b100100 .
b1001 0
b00000000000000000000000000011001 3
b00000000000000000000000000001011 7
b00000000000000000000000000000101 4
b00000000000000000000000000000011 8
b11010101101001101100100010101011 &
b00000000000000000000000011001100 $
b11000010100101100000101010000101 %
#290000
0!
#295000
1!
r0.000000000000000  H
r0.000000000000000  G
r0.2000000000000000  H
r0.8000000000000000  G
r0.2727272727272727  K
r0.7272727272727273  L
b001100 .
b1100 0
0'
b00000000000000000000000000011010 3
b00000000000000000000000000001100 7
1+
b00000000000000000000000000010101 5
b00000000000000000000000000001001 9
b11011010001111011000110010110100 &
b0001100 ]
b1100 _
b00000000000000000000000000010101 b
b00000000000000000000000000001001 f
b00000000000000000000000000010101 d
b00000000000000000000000000001001 h
b10010100100110101000101000101001 )
b00000000000000000000000010011110 $
b01111001111011000110101111110011 %
#300000
0!
#305000
1!
r0.000000000000000  H
r0.000000000000000  G
r0.1923076923076923  H
r0.8076923076923077  G
r0.2500000000000000  K
r0.7500000000000000  L
b001001 .
b1110 0
b00000000000000000000000000011011 3
b00000000000000000000000000001101 7
b00000000000000000000000000010110 5
b00000000000000000000000000001010 9
b10010100100110101000101000101001 &
b0001001 ]
b1110 _
b00000000000000000000000000010110 b
b00000000000000000000000000001010 f
b00000000000000000000000000010110 d
b00000000000000000000000000001010 h
b01111011110100100110000111110111 )
1#
b00000000000000000000001011111010 $
b11100101100100110110011011001011 %
#310000
0!
#315000
1!
r0.000000000000000  H
r0.000000000000000  G
r0.1851851851851852  H
r0.8148148148148148  G
r0.2307692307692308  K
r0.7692307692307693  L
b101111 .
b1010 0
b00000000000000000000000000011100 3
b00000000000000000000000000001111 6
b00000000000000000000000000010111 5
b00000000000000000000000000001101 ;
b0101111 ]
b1010 _
b00000000000000000000000000010111 b
b00000000000000000000000000001101 e
b00000000000000000000000000010111 d
b00000000000000000000000000001101 j
0#
b00000000000000000000001111011011 $
b01111011011100000101110111110110 %
#320000
0!
#325000
1!
r0.000000000000000  H
r0.000000000000000  G
r0.1785714285714286  H
r0.8214285714285714  G
r0.1333333333333333  I
r0.8666666666666667  J
b111101 .
b1011 0
1'
b00000000000000000000000000011101 3
b00000000000000000000000000001110 7
b00000000000000000000000000000110 4
b00000000000000000000000000000100 8
0+
b01010110110011110110111110101101 &
b00000000000000000000001010001001 $
b01010001000101101011111110100010 %
#330000
0!
#335000
1!
r0.000000000000000  H
r0.000000000000000  G
r0.2068965517241379  H
r0.7931034482758621  G
r0.2857142857142857  K
r0.7142857142857143  L
b101000 .
b1001 0
0'
b00000000000000000000000000011110 3
b00000000000000000000000000001111 7
1+
b00000000000000000000000000011000 5
b00000000000000000000000000001011 9
b01111011110100100110000111110111 &
b0101000 ]
b1001 _
b00000000000000000000000000011000 b
b00000000000000000000000000001011 f
b00000000000000000000000000011000 d
b00000000000000000000000000001011 h
b01100111111010000101011111001111 )
b00000000000000000000001011010111 $
b11010100010011101110111010101000 %
#340000
0!
#345000
1!
r0.000000000000000  H
r0.000000000000000  G
r0.2000000000000000  H
r0.8000000000000000  G
r0.2666666666666667  K
r0.7333333333333333  L
b101101 .
b0111 0
1'
b00000000000000000000000000011111 3
b00000000000000000000000000010000 7
b00000000000000000000000000000111 4
b00000000000000000000000000000101 8
0+
b01011010001111000010000110110100 &
b00000000000000000000000111110111 $
b10111110001100011010000001111100 %
#350000
0!
#355000
1!
r0.000000000000000  H
r0.000000000000000  G
r0.2258064516129032  H
r0.7741935483870968  G
r0.3125000000000000  K
r0.6875000000000000  L
b011111 .
0'
b00000000000000000000000000100000 3
b00000000000000000000000000010001 7
1+
b00000000000000000000000000011001 5
b00000000000000000000000000001100 9
b01100111111010000101011111001111 &
b0011111 ]
b0111 _
b00000000000000000000000000011001 b
b00000000000000000000000000001100 f
b00000000000000000000000000011001 d
b00000000000000000000000000001100 h
b11111000110111000100100011110001 )
1#
b00000000000000000000001101011011 $
b01110010101100101111100111100101 %
#360000
0!
#365000
1!
r0.000000000000000  H
r0.000000000000000  G
r0.2187500000000000  H
r0.7812500000000000  G
r0.2941176470588235  K
r0.7058823529411765  L
b110101 .
b1011 0
b00000000000000000000000000100001 3
b00000000000000000000000000010000 6
b00000000000000000000000000011010 5
b00000000000000000000000000001110 ;
b0110101 ]
b1011 _
b00000000000000000000000000011010 b
b00000000000000000000000000001110 e
b00000000000000000000000000011010 d
b00000000000000000000000000001110 j
0#
b00000000000000000000000011011000 $
b10011011000000101101001000110110 %
#370000
0!
#375000
1!
r0.000000000000000  H
r0.000000000000000  G
r0.2121212121212121  H
r0.7878787878787878  G
r0.1250000000000000  I
r0.8750000000000000  J
b001101 .
b1000 0
b00000000000000000000000000100010 3
b00000000000000000000000000010010 7
b00000000000000000000000000011011 5
b00000000000000000000000000001101 9
b11111000110111000100100011110001 &
b0001101 ]
b1000 _
b00000000000000000000000000011011 b
b00000000000000000000000000001101 f
b00000000000000000000000000011011 d
b00000000000000000000000000001101 h
b00000111000010111011100100001110 )
1#
b00000000000000000000001010000000 $
b01011100001011010110001110111000 %
#380000
0!
#385000
1!
r0.000000000000000  H
r0.000000000000000  G
r0.2058823529411765  H
r0.7941176470588235  G
r0.2777777777777778  K
r0.7222222222222222  L
b101000 .
b0000 0
1'
b00000000000000000000000000100011 3
b00000000000000000000000000010001 6
b00000000000000000000000000001000 4
b00000000000000000000000000000011 :
0+
b00000000000000000000001111010100 $
b00110111001101001011001101101110 %
#390000
0!
#395000
1!
r0.000000000000000  H
r0.000000000000000  G
r0.2285714285714286  H
r0.7714285714285715  G
r0.1764705882352941  I
r0.8235294117647058  J
b111101 .
b0100 0
b00000000000000000000000000100100 3
b00000000000000000000000000010010 6
b00000000000000000000000000001001 4
b00000000000000000000000000000100 :
0#
b00000000000000000000001001011010 $
b10010011110110111001011000100111 %
#400000
0!
#405000
1!
r0.000000000000000  H
r0.000000000000000  G
r0.2500000000000000  H
r0.7500000000000000  G
r0.2222222222222222  I
r0.7777777777777778  J
b100101 .
b1010 0
0'
b00000000000000000000000000100101 3
b00000000000000000000000000010011 7
1+
b00000000000000000000000000011100 5
b00000000000000000000000000001110 9
b00000111000010111011100100001110 &
b0100101 ]
b1010 _
b00000000000000000000000000011100 b
b00000000000000000000000000001110 f
b00000000000000000000000000011100 d
b00000000000000000000000000001110 h
b00100010110101011111000101000101 )
1#
b00000000000000000000000111000110 $
b00100001101100110001101101000011 %
#410000
0!
#415000
1!
r0.000000000000000  H
r0.000000000000000  G
r0.2432432432432433  H
r0.7567567567567568  G
r0.2631578947368421  K
r0.7368421052631579  L
b011100 .
b0110 0
b00000000000000000000000000100110 3
b00000000000000000000000000010011 6
b00000000000000000000000000011101 5
b00000000000000000000000000001111 ;
b0011100 ]
b0110 _
b00000000000000000000000000011101 b
b00000000000000000000000000001111 e
b00000000000000000000000000011101 d
b00000000000000000000000000001111 j
b00000000000000000000001011101110 $
b11001001000001101110001010010010 %
#420000
0!
#425000
1!
r0.000000000000000  H
r0.000000000000000  G
r0.2368421052631579  H
r0.7631578947368421  G
r0.2105263157894737  I
r0.7894736842105263  J
b101110 .
b1110 0
b00000000000000000000000000100111 3
b00000000000000000000000000010100 6
b00000000000000000000000000011110 5
b00000000000000000000000000010000 ;
b0101110 ]
b1110 _
b00000000000000000000000000011110 b
b00000000000000000000000000010000 e
b00000000000000000000000000011110 d
b00000000000000000000000000010000 j
b00000000000000000000000011001101 $
b10000110011111101011101000001100 %
#430000
0!
#435000
1!
r0.000000000000000  H
r0.000000000000000  G
r0.2307692307692308  H
r0.7692307692307693  G
r0.2000000000000000  I
r0.8000000000000000  J
b001100 .
b1101 0
1'
b00000000000000000000000000101000 3
b00000000000000000000000000010101 6
b00000000000000000000000000001010 4
b00000000000000000000000000000101 :
0+
0#
b00000000000000000000000000000110 $
b10101110110001010100011001011101 %
#440000
0!
#445000
1!
r0.000000000000000  H
r0.000000000000000  G
r0.2500000000000000  H
r0.7500000000000000  G
r0.2380952380952381  I
r0.7619047619047619  J
b000000 .
b0110 0
b00000000000000000000000000101001 3
b00000000000000000000000000010100 7
b00000000000000000000000000001011 4
b00000000000000000000000000000110 8
bxxxxxxxxxxxxxxxxxxxxxxxxxxxxxxxx &
b00000000000000000000001101110101 $
b00111100111000101000110101111001 %
#450000
0!
#455000
1!
r0.000000000000000  H
r0.000000000000000  G
r0.2682926829268293  H
r0.7317073170731707  G
r0.3000000000000000  K
r0.7000000000000000  L
b110111 .
b0101 0
b00000000000000000000000000101010 3
b00000000000000000000000000010101 7
b00000000000000000000000000001100 4
b00000000000000000000000000000111 8
b11101000011101000000110011010000 &
1#
b00000000000000000000001001101001 $
b11001101111111010001101010011011 %
#460000
0!
#465000
1!
r0.000000000000000  H
r0.000000000000000  G
r0.2857142857142857  H
r0.7142857142857143  G
r0.3333333333333333  K
r0.6666666666666666  L
b100110 .
b1001 0
0'
b00000000000000000000000000101011 3
b00000000000000000000000000010110 6
b00000000000000000000000000011111 5
b00000000000000000000000000010001 ;
1+
b0100110 ]
b1001 _
b00000000000000000000000000011111 b
b00000000000000000000000000010001 e
b00000000000000000000000000011111 d
b00000000000000000000000000010001 j
b00000000000000000000001111100111 $
b11100111111001010111101011001111 %
#470000
0!
#475000
1!
r0.000000000000000  H
r0.000000000000000  G
r0.2790697674418605  H
r0.7209302325581395  G
r0.2272727272727273  I
r0.7727272727272727  J
b111110 .
b0111 0
b00000000000000000000000000101100 3
b00000000000000000000000000010111 6
b00000000000000000000000000100000 5
b00000000000000000000000000010010 ;
b0111110 ]
b0111 _
b00000000000000000000000000100000 b
b00000000000000000000000000010010 e
b00000000000000000000000000100000 d
b00000000000000000000000000010010 j
0#
b00000000000000000000001010001010 $
b11100011101000011101011011000111 %
#480000
0!
#485000
1!
r0.000000000000000  H
r0.000000000000000  G
r0.2727272727272727  H
r0.7272727272727273  G
r0.2173913043478261  I
r0.7826086956521739  J
b101000 .
b1010 0
1'
b00000000000000000000000000101101 3
b00000000000000000000000000010110 7
b00000000000000000000000000001101 4
b00000000000000000000000000001000 8
0+
b01011100001011010110001110111000 &
b00000000000000000000000011001010 $
b10100101011100001101101001001010 %
#490000
0!
#495000
1!
r0.000000000000000  H
r0.000000000000000  G
r0.2888888888888889  H
r0.7111111111111111  G
r0.3636363636363636  K
r0.6363636363636364  L
b001100 .
b00000000000000000000000000101110 3
b00000000000000000000000000010111 7
b00000000000000000000000000001110 4
b00000000000000000000000000001001 8
b10000110011111101011101000001100 &
1#
b00000000000000000000000001001001 $
b00001111100011110000101100011111 %
#500000
0!
